<?xml version="1.0" encoding="utf-8"?>
<!-- Written by Treer (gitlab.com/Treer) -->
<svg width='32' height='32' xmlns="http://www.w3.org/2000/svg">
	<rect width="100%" height="100%" fill="#5c6099"></rect>
	<rect width="30px" height="30px" fill="#43488a"></rect>
</svg>